{
	"app":"Modaliteti i aplikacionit",
	"buy":{
		"kyc":"Me Identifikim",
		"p2p":"Privatisht",
		"fiat":"Me Fiat",
		"crypto":"Me Crypto",
		"other":"Monedha të tjera",
		"prompt":"zgjidhni metodën e blerjes XMR për të shfaqur rezultatet"
	},
	"contact":{
		"contact":"Na kontaktoni",
		"suggest":"Sugjeroni një tregtar Monero",
		"upload":"Ngarko një fotografi",
		"donate":"Dhuroni"
	},
	"cookie":"Lejo Cookie",
	"disclaim":{
		"exchange":"Jini të vetëdijshëm! Find Monero nuk po miraton asnjë nga këto shkëmbime. Sigurohuni që të hulumtoni çdo shërbim shkëmbimi, por më e rëndësishmja; konsideroni se çdo monedhë në çdo këmbim humbet. Jo çelësat tuaj, jo monedhat tuaja.",
		"merchant":"Përfshirja në këtë drejtori tregtare nuk është një miratim nga Find Monero. Qëndroni të sigurt!"
	},
	"donate":"Ashtë një punë e madhe të hartosh dhe organizosh botën e njohur Monero. Find Monero është i përkushtuar për të qëndruar pa reklama, por do të ketë nevojë për ndihmë financiare për të mbajtur veten dhe për t'u rritur.<br><br>Çdo tepricë e Find Monero do t'i dhurohet <a href=\"https://www.monerooutreach.org/merchants/monero-merchant-pos-sticker-kit.html\" target=\"_blank\">Programit të Kompletit të Ngjitësve të Tregtarëve Monero</a>.",
	"findxmr":"Gjeni Monero",
	"mapcon":"Pra, ju pëlqen hartat? A jeni mohuar gjithashtu që është një projeksion Mercator? <span class=\"ContributeTrans C1_link\">gitlab.com/monerooutreach/findmonero.org</span>",
	"mapfoot":"Find Monero është sjellë tek ju nga <a href=\"https://www.monerooutreach.org/\" target=\"_blank\">Monero Outreach</a>.",
	"menu":{
		"buy":"Blini XMR në ##C##",
		"merchant":"Tregtarët Monero (Përdorni XMR tuaj)",
		"gallery":"Monero Gjeografike: "
	},
	"nav":{
		"mdir":{
			"lbl":"Pamja e direktorisë",
			"url":"tregtarët/"
		},
		"map":{
			"lbl":"Pamja e Hartës",
			"url":"sq/"
		},
		"contact":{
			"lbl":"Kontribuoni",
			"url":"kontribuoni.html"
		},
		"privacy":{
			"lbl":"Privatësia juaj",
			"url":"privatësia-juaj.html"
		},
		"sitemap":{
			"lbl":"Harta e sitit shqiptar",
			"url":"harta-e-sitit-shqiptar.html"
		}
	},
	"or":"ose",
	"src":"Burimi",
	"trans":"Ju lutemi <span class=\"ContributeTrans C1_link\">na tregoni</span> nëse diçka është përkthyer gabimisht."
}
