{
	"app":"Uygulama Modu",
	"buy":{
		"kyc":"Tanımlama ile",
		"p2p":"Özel olarak",
		"fiat":"Fiat ile",
		"crypto":"Kripto ile",
		"other":"Diğer para birimleri",
		"prompt":"sonuçları görüntülemek için XMR satın alma yöntemini seçin"
	},
	"contact":{
		"contact":"Bizimle iletişime geçin",
		"suggest":"Bir Monero Satıcısı Öner",
		"upload":"Bir fotoğraf yükle",
		"donate":"Bağış yap"
	},
	"cookie":"Çerezlere İzin Ver",
	"disclaim":{
		"exchange":"Farkında olmak! Find Monero bu değişimlerin hiçbirini onaylamıyor. Herhangi bir değişim hizmetini araştırdığınızdan emin olun, ancak daha da önemlisi; Kaybedilecek herhangi bir borsadaki herhangi bir madeni parayı düşünün. Anahtarların değil, madeni paraların değil.",
		"merchant":"Bu tüccar dizinine dahil edilmesi, Find Monero'nun bir onayı değildir. Güvende kal!"
	},
	"donate":"Bilinen Monero dünyasını haritalamak ve düzenlemek büyük bir iş. Find Monero, reklamsız kalmaya kendini adamıştır, ancak kendini sürdürmek ve büyümek için finansal yardıma ihtiyacı olacaktır.<br><br>Herhangi bir FindMonero fazlası, <a href=\"https://www.monerooutreach.org/merchants/monero-merchant-pos-sticker-kit.html\" target=\"_blank\">Monero Merchant Sticker Kit Programına</a> bağışlanacaktır.",
	"findxmr":"Monero bul",
	"mapcon":"Ee, haritaları sever misin? Ayrıca bunun bir Mercator projeksiyonu olduğunu mu düşünüyorsunuz? <span class=\"ContributeTrans C1_link\">gitlab.com/monerooutreach/findmonero.org</span>",
	"mapfoot":"Find Monero, <a href=\"https://www.monerooutreach.org/\" target=\"_blank\">Monero Outreach</a> tarafından size getirilir.",
	"menu":{
		"buy":"##C##'de XMR Satın Alın",
		"merchant":"Monero Satıcıları (XMR'nizi Kullanın)",
		"gallery":"Monero Geographic: "
	},
	"nav":{
		"contact":{
			"lbl":"Katkıda bulunmak",
			"url":"katkıda-bulunmak.html"
		},
		"mdir":{
			"lbl":"Dizin Görünümü",
			"url":"satıcıları/"
		},
		"map":{
			"lbl":"Harita Görünümü",
			"url":"tr/"
		},
		"privacy":{
			"lbl":"Gizliliğiniz",
			"url":"gizliliğiniz.html"
		},
		"sitemap":{
			"lbl":"Site Haritası",
			"url":"site-haritası.html"
		}
	},
	"or":"veya",
	"src":"Kaynak",
	"trans":"Yanlış çevrilmiş herhangi bir şey varsa lütfen <span class=\"ContributeTrans C1_link\">bize bildirin</span>."
}
